Switching between space and time: Spatio-temporal analysis with cubble
…
Amazon link

Physical sensors are a common source of vector spatio-temporal data. Here is the picture of a fancy weather sensor.

On the right, the wind speed cup and the wind vane measure the wind speed and direction.

The rain gauge on the left has a standard diameter, based on which rainfall is measured in mm and the thermo sensor below it measures the temperature.

Instruments like this are placed across Australia to record climate data on a daily or sometimes half hourly basis.

Australian weather station data:

stations

# A tibble: 88 × 6
  id            lat  long  elev name              wmo_id
  <chr>       <dbl> <dbl> <dbl> <chr>              <dbl>
1 ASN00001006 -15.5  128.   3.8 wyndham aero       95214
2 ASN00002032 -17.0  128. 203   warmun             94213
3 ASN00003080 -17.6  124.  77.5 curtin aero        94204
4 ASN00005007 -22.2  114.   5   learmonth airport  94302
5 ASN00006044 -25.9  114.   9   denham             94402
# … with 83 more rows
…
ts

# A tibble: 32,208 × 5
  id          date        prcp  tmax  tmin
  <chr>       <date>     <dbl> <dbl> <dbl>
1 ASN00001006 2020-01-01   164  38.3  25.3
2 ASN00001006 2020-01-02     0  40.6  30.5
3 ASN00001006 2020-01-03    16  39.7  27.2
4 ASN00001006 2020-01-04     0  38.2  27.3
5 ASN00001006 2020-01-05     2  39.3  26.7
# … with 32,203 more rows
…
